0:n01443537
1:n01698640
2:n01774750
3:n01910747
4:n02056570
5:n02113799
6:n02124075
7:n02125311
8:n02129165
9:n02206856
10:n02403003
11:n02410509
12:n02769748
13:n02788148
14:n02814533
15:n02837789
16:n02892201
17:n02917067
18:n02999410
19:n03160309
20:n03424325
21:n03584254
22:n03617480
23:n03796401
24:n03838899
25:n04008634
26:n04259630
27:n04371430
28:n04376876
29:n04456115
30:n04532106
31:n04562935
32:n06596364
33:n07583066
34:n07753592
35:n07871810
36:n09193705
37:n09332890
38:n09428293
39:n12267677
